@startuml data-flow

skinparam shadowing false
skinparam sequenceMessageAlign center

skinparam sequence {
    BoxBorderColor Black
    BoxBackgroundColor transparent
}

box "Main Platform"
    participant "Message Builder Task" as msg_builder_task
    participant "Screen Task" as screen_task
    participant "Uart Raw Tx Task" as uart_raw_tx_task
    participant "Message Remover Task" as msg_remover_task
    participant "Storage Task" as storage_task
    participant "Uart Debug Task" as uart_debug_task
end box

[-> msg_builder_task: New CAN message
msg_builder_task -> msg_builder_task: Process and assemble\napplication level message

msg_builder_task -> screen_task: Send application level message
screen_task -> screen_task: Check message ID
alt#Gold #LightBlue Screen should be updated
    screen_task -> screen_task: Update screen
else #Pink Screen should not be updated
    screen_task -> screen_task: Drop Message
end
screen_task -> msg_remover_task: Send sync

msg_builder_task -> uart_raw_tx_task: Send application level message
uart_raw_tx_task -> uart_raw_tx_task: Send UART message
uart_raw_tx_task -> msg_remover_task: Send sync


msg_remover_task -> screen_task: Synced
msg_remover_task -> uart_raw_tx_task: Synced

msg_remover_task -> storage_task: Send application level message
storage_task -> storage_task: Include message in buffer
alt#Gold #LightBlue Buffer is full
    storage_task -> storage_task: Persist messages in SD card
end

msg_remover_task -> uart_debug_task: Send application level message
alt#Gold #LightBlue Debug mode is active
    uart_debug_task -> uart_debug_task: Forward message to debug terminal
else #Pink Debug mode is not active
    uart_debug_task -> uart_debug_task: Drop Message
end

@enduml
