@startuml CAN2_RX0_IRQHANDLER
skinparam DefaultTextAlignment center
skinparam NoteTextAlignment left

partition CAN2_RX0_IRQHANDLER
    fork
        :**CAN2**
        Get message header and payload/
        :Fill unused payload bytes with
        zeroes;
        note right
        payloadIndex > DLC = 0x00 
        end note
        :**CAN2**
        Get error code/
        note right 
        Should be 0x00 on normal operation
        end note
        :Stamp sequence
        number;
        :Post message on  
        msgQueueLowCAN queue;
        note right
        send to msgBuildTask
        end note
    end fork;
@enduml