@startuml CAN2_SCE_IRQHANDLER
skinparam DefaultTextAlignment center
skinparam NoteTextAlignment left

partition CAN2_SCE_IRQHANDLER
    fork
        :Clear IRQ;
        :**CAN2**
        Get error code/
        note right
        Format Error, Ack Error, 
        Stuff Bit Error, CRC Error... 
        end note
        :Set all header 
        fields to zero;
        :Set all payload 
        bytes to zero;
        :Stamp sequence
        number;
        :Post message on  
        msgQueueLowCAN queue;
        note right
        send to msgBuildTask
        end note
    end fork;
@enduml