@startuml TIM6_DAC_IRQHANDLER
skinparam DefaultTextAlignment center

partition TIM6_DAC_IRQHANDLER
    fork
        :Period elapsed callback|
        note right
        Increment HAL Tick
        (SysTick is used by RTOS).
        end note
        :Clean interruption;
    end fork;
@enduml