@startuml USART3_IRQHandler
skinparam DefaultTextAlignment center

partition USART3_IRQHandler
    fork
        :Clear Interruption;
        :**USART3**
        Get RX data/
        if (Line Break Detected?) then (yes)
        :EventFlagSet;
        note left
        Unlock uartDebugTask 
        to process rx data
        end note
        else (no)
endif
    end fork;
@enduml