@startuml
'hide the spot
hide circle

' avoid problems with angled crows feet
skinparam linetype ortho

entity "CAN_Message_Struct (//High Level Message//)" as e01 {
  *SeqNumber \t uint32_t (0x00000000 - 0xFFFFFFFF) \t <Sequence Number>
  *CAN_Payload[8] \t uint32_t (0x00 - 0xFF) \t\t\t <Message Payload> 
  *ErrorCode \t\t uint32_t (0x00 - 0x01) \t\t\t <stm32f4xx_hal_can.h>
  *CRC \t\t\t uint32_t (0x00 - 0x0x01) \t\t\t <DataStruct-level CRC>
  --
}

entity "CAN_Header_Struct" as e02 {
  *StdId \t uint32_t (0x00 - 0x7FF) \t\t <Standard ID (11 bits)>
  *ExtId \t uint32_t (0x00 - 0x1FFFFFFF) \t <Extended ID (29 bits)>
  *RTR \t\t uint32_t (0x00 - 0x01) \t\t <Remote request data flag>
  *IDE \t\t uint32_t (0x00 - 0x01) \t\t <Extended ID flag>
  *DLC \t\t uint32_t (0x00 - 0x08) \t\t <Data Length Code>
  --
}

entity "CAN_TimeStamp_Struct" as e03{
  *Date \t\t uint32_t (0x00 - 0x1F) \t <RTC date>
	*Month \t\t uint32_t (0x00 - 0x0C) \t <RTC month>
	*Year \t\t\t uint32_t (0x00 - 0x63) \t <RTC Year>
	*Hours \t\t uint32_t (0x00 - 0x17) \t <RTC Hour>
  *Minutes \t\t uint32_t (0x00 - 0x3B) \t <RTC Minute>
  *Seconds \t\t uint32_t (0x00 - 0x3B) \t <RTC Second>
	*SubSeconds \t uint32_t (0x00 - 0xFF) \t <RTC subseconds value>
  --
}

e01 ||..|| e02
e01 ||..|| e03

@enduml