@startuml storageTask
skinparam DefaultTextAlignment center

partition storageTask {
    start
    :**SD**
    Mount file system/
    if (fileSystem is OK) then (true)
        :**GPIO**
        Set LED1 ON/
    else (false)
    endif
    repeat
        while (msgQueueStorage is pending) is (false)
        floating note
        Task will be __blocked__ while 
        waiting for a pending element on
        //msgQueueStorage// queue
        end note
        endwhile (true)
        :Copy message to local buffer;
        :Increment RX messages counter;
        if (RX messages >= bufferSize) then (true)
            :**RTC**
            Get Date/
            :Set filename:
            (year)(month)(day).txt;
            :**SD**
            Open file/
            :**SD**
            Write buffer into file/
            :**SD**
            Close file/
            :Reset RX messages counter;
        else (false)
        endif
    repeat while ()
}
@enduml